<sdf version='1.6'>
  <world name='neighbourhood'>

    <light name='sun' type='directional'>
      <cast_shadows>1</cast_shadows>
      <pose frame=''>0 0 10 0 0 0</pose>
      <diffuse>0.8 0.8 0.8 1</diffuse>
      <specular>0.1 0.1 0.1 1</specular>
      <attenuation>
        <range>1000</range>
        <constant>0.9</constant>
        <linear>0.01</linear>
        <quadratic>0.001</quadratic>
      </attenuation>
      <direction>-0.5 0.5 -1</direction>
    </light>

    <gravity>0 0 -9.8</gravity>
    <magnetic_field>6e-06 2.3e-05 -4.2e-05</magnetic_field>
    <atmosphere type='adiabatic'/>

    <physics name='default_physics' default='0' type='ode'>
      <max_step_size>0.001</max_step_size>
      <real_time_factor>1</real_time_factor>
      <real_time_update_rate>1000</real_time_update_rate>
    </physics>

    <scene>
      <ambient>0.4 0.4 0.4 1</ambient>
      <background>0.7 0.7 0.7 1</background>
      <shadows>1</shadows>
    </scene>

    <spherical_coordinates>
      <surface_model>EARTH_WGS84</surface_model>
      <latitude_deg>0</latitude_deg>
      <longitude_deg>0</longitude_deg>
      <elevation>0</elevation>
      <heading_deg>0</heading_deg>
    </spherical_coordinates>

    <include>
      <uri>model://stage2_plane</uri>
    </include>

    <model name="house_1">
      <include>
        <uri>model://apartment</uri>
      </include>
      <pose frame=''>-42.626694 48.707294 0 0 0 1.5708</pose>
    </model>

    <model name="house_2">
      <include>
        <uri>model://house_2</uri>
      </include>
      <pose frame=''>-15.079152 45.005585 0 0 0 0</pose>
    </model>

    <model name="house_3">
      <include>
        <uri>model://house_1</uri>
      </include>
      <pose frame=''>14.454551 47.820595 0 0 0 0</pose>
    </model>

    <model name="house_4">
      <include>
        <uri>model://school</uri>
      </include>
      <pose frame=''>45.612865 49.773926 0 0 0 0</pose>
    </model>

    <model name="house_5">
      <include>
        <uri>model://house_1</uri>
      </include>
      <pose frame=''>-42.999599 19.237476 0 0 0 0</pose>
    </model>

    <model name="house_6">
      <include>
        <uri>model://fire_station</uri>
      </include>
      <pose frame=''>-17.190084 17.461121 0 0 0 0</pose>
    </model>

    <model name="house_7">
      <include>
        <uri>model://house_2</uri>
      </include>
      <pose frame=''>12.367172 16.351274 0 0 0 0</pose>
    </model>

    <model name="house_8">
      <include>
        <uri>model://fast_food</uri>
      </include>
      <pose frame=''>46.583740 18.109970 0 0 0 0</pose>
    </model>

    <model name="house_9">
      <include>
        <uri>model://house_2</uri>
      </include>
      <pose frame=''>-43.603523 -11.658906 0 0 0 0</pose>
    </model>

    <model name="house_10">
      <include>
        <uri>model://house_1</uri>
      </include>
      <pose frame=''>-14.562700 -8.866960 0 0 0 0</pose>
    </model>

    <model name="house_11">
      <include>
        <uri>model://police_station</uri>
      </include>
      <pose frame=''>16.324356 -10.853835 0 0 0 1.5708</pose>
    </model>

    <model name="house_12">
      <include>
        <uri>model://house_2</uri>
      </include>
      <pose frame=''>40.432621 -11.623194 0 0 0 0</pose>
    </model>

    <model name="house_13">
      <include>
        <uri>model://house_1</uri>
      </include>
      <pose frame=''>-42.888832 -35.345894 0 0 0 0</pose>
    </model>

    <model name="house_14">
      <include>
        <uri>model://fast_food</uri>
      </include>
      <pose frame=''>-17.824697 -36.750542 0 0 0 0</pose>
    </model>

    <model name="house_15">
      <include>
        <uri>model://house_2</uri>
      </include>
      <pose frame=''>11.860918 -38.411087 0 0 0 0</pose>
    </model>

    <model name="house_16">
      <include>
        <uri>model://house_1</uri>
      </include>
      <pose frame=''>42.091080 -35.495979 0 0 0 0</pose>
    </model>

    <model name="dumpster_1">
      <include>
        <uri>model://dumpster</uri>
      </include>
      <pose frame=''>-42 35.8 0 0 0 0</pose>
    </model>

    <model name="dumpster_2">
      <include>
        <uri>model://dumpster</uri>
      </include>
      <pose frame=''>-14 35.8 0 0 0 0</pose>
    </model>

    <model name="dumpster_3">
      <include>
        <uri>model://dumpster</uri>
      </include>
      <pose frame=''>14 35.8 0 0 0 0</pose>
    </model>

    <model name="dumpster_4">
      <include>
        <uri>model://dumpster</uri>
      </include>
      <pose frame=''>42 35.8 0 0 0 0</pose>
    </model>

    <model name="dumpster_5">
      <include>
        <uri>model://dumpster</uri>
      </include>
      <pose frame=''>42 7 0 0 0 0</pose>
    </model>

    <model name="dumpster_6">
      <include>
        <uri>model://dumpster</uri>
      </include>
      <pose frame=''>14 7 0 0 0 0</pose>
    </model>

    <model name="dumpster_7">
      <include>
        <uri>model://dumpster</uri>
      </include>
      <pose frame=''>-14 7 0 0 0 0</pose>
    </model>

    <model name="dumpster_8">
      <include>
        <uri>model://dumpster</uri>
      </include>
      <pose frame=''>-42 7 0 0 0 0</pose>
    </model>

    <model name="dumpster_9">
      <include>
        <uri>model://dumpster</uri>
      </include>
      <pose frame=''>-42 -20 0 0 0 0</pose>
    </model>

    <model name="dumpster_10">
      <include>
        <uri>model://dumpster</uri>
      </include>
      <pose frame=''>-14 -20 0 0 0 0</pose>
    </model>

    <model name="dumpster_11">
      <include>
        <uri>model://dumpster</uri>
      </include>
      <pose frame=''>14 -20 0 0 0 0</pose>
    </model>

    <model name="dumpster_12">
      <include>
        <uri>model://dumpster</uri>
      </include>
      <pose frame=''>42 -20 0 0 0 0</pose>
    </model>

    <model name="dumpster_13">
      <include>
        <uri>model://dumpster</uri>
      </include>
      <pose frame=''>42 -47.7 0 0 0 0</pose>
    </model>

    <model name="dumpster_14">
      <include>
        <uri>model://dumpster</uri>
      </include>
      <pose frame=''>14 -47.7 0 0 0 0</pose>
    </model>

    <model name="dumpster_15">
      <include>
        <uri>model://dumpster</uri>
      </include>
      <pose frame=''>-14 -47.7 0 0 0 0</pose>
    </model>

    <model name="dumpster_16">
      <include>
        <uri>model://dumpster</uri>
      </include>
      <pose frame=''>-42 -47.7 0 0 0 0</pose>
    </model>

    <model name="wheelie_bin_1">
      <include>
        <uri>model://wheelie_bin</uri>
      </include>
      <pose frame=''>0 45 0 0 0 0</pose>
    </model>

    <model name="wheelie_bin_2">
      <include>
        <uri>model://wheelie_bin</uri>
      </include>
      <pose frame=''>0 17 0 0 0 0</pose>
    </model>

    <model name="wheelie_bin_3">
      <include>
        <uri>model://wheelie_bin</uri>
      </include>
      <pose frame=''>0 -11 0 0 0 0</pose>
    </model>

    <model name="wheelie_bin_4">
      <include>
        <uri>model://wheelie_bin</uri>
      </include>
      <pose frame=''>0 -39 0 0 0 0</pose>
    </model>

    <road name="main_road">
      <width>10</width>
      <point>-75 32,742950 0.1</point>
      <point>70 32,742950 0.1</point>
      <point>70 4,352367 0.1</point>
      <point>-70 4,352367 0.1</point>
      <point>-70 -23,480522 0.1</point>
      <point>70 -23,480522 0.1</point>
      <point>70 -51,418907 0.1</point>
      <point>-75 -51,418907 0.1</point>
    </road>

    <road name="alleyway">
      <width>7</width>
      <point>0 56,559814 0.05</point>
      <point>0 -56,559814 0.05</point>
      <material>
        <script>
          <uri>file://media/materials/scripts/gazebo.material</uri>
          <name>Gazebo/Residential</name>
        </script>
      </material>
    </road>

    <gui fullscreen='0'>
      <camera name='user_camera'>
        <pose frame=''>-1.26511 -1.08652 18.565 0 1.5218 -0.122452</pose>
        <view_controller>orbit</view_controller>
        <projection_type>perspective</projection_type>
      </camera>
    </gui>

    <audio>
      <device>default</device>
    </audio>

  </world>
</sdf>
